<svg width="50" height="50" viewBox="0 0 50 50" fill="none" xmlns="http://www.w3.org/2000/svg">
<path d="M39.5834 13.3542L36.6459 10.4167L25 22.0626L13.3542 10.4167L10.4167 13.3542L22.0625 25.0001L10.4167 36.6459L13.3542 39.5834L25 27.9376L36.6459 39.5834L39.5834 36.6459L27.9375 25.0001L39.5834 13.3542Z" fill="black"/>
</svg>
